{
    "swagger": "2.0",
    "info": {
        "version": "0.0.1",
        "title": "Swagger API"
    },
    "host": "playground.apistudio.io",
    "basePath": "/try/be7e11e1-ab17-40cb-838a-56231fc1347b",
    "schemes": [
        "http",
        "https"
    ],
    "consumes": [
        "application/json"
    ],
    "produces": [
        "application/json"
    ],
    "paths": {
        "/customs-accounts": {
            "post": {
                "description": "Make a new `CustomsAccount`.",
                "parameters": [
                    {
                        "name": "body",
                        "description": "A new `CustomsAccount`",
                        "in": "body",
                        "schema": {
                            "$ref": "#/definitions/CustomsAccount"
                        }
                    }
                ],
                "responses": {
                    "200": {
                        "description": "OK",
                        "schema": {
                            "$ref": "#/definitions/CustomsAccount"
                        }
                    }
                }
            },
            "get": {
                "description": "Get all `CustomsAccount`.",
                "responses": {
                    "200": {
                        "description": "OK",
                        "schema": {
                            "type": "array",
                            "items": {
                                "$ref": "#/definitions/CustomsAccount"
                            }
                        }
                    }
                }
            }
        },
        "/customs-account/{id}": {
            "get": {
                "description": "Get one `CustomsAccount` with given id.",
                "parameters": [
                    {
                        "name": "id",
                        "in": "path",
                        "required": true,
                        "description": "ID of a `CustomsAccount`",
                        "type": "integer"
                    }
                ],
                "responses": {
                    "200": {
                        "description": "OK",
                        "schema": {
                            "$ref": "#/definitions/CustomsAccount"
                        }
                    }
                }
            },
            "put": {
                "description": "Update a `CustomsAccount` with given id.",
                "parameters": [
                    {
                        "name": "body",
                        "description": "A new `CustomsAccount`",
                        "in": "body",
                        "schema": {
                            "$ref": "#/definitions/CustomsAccount"
                        }
                    },
                    {
                        "name": "id",
                        "in": "path",
                        "required": true,
                        "description": "ID of a `CustomsAccount`",
                        "type": "integer"
                    }
                ],
                "responses": {
                    "200": {
                        "description": "OK",
                        "schema": {
                            "$ref": "#/definitions/CustomsAccount"
                        }
                    }
                }
            },
            "delete": {
                "description": "Delete a `CustomsAccount` with given id.",
                "parameters": [
                    {
                        "name": "id",
                        "in": "path",
                        "required": true,
                        "description": "ID of a `CustomsAccount`",
                        "type": "integer"
                    }
                ],
                "responses": {
                    "200": {
                        "description": "OK"
                    }
                }
            }
        }
    },
    "definitions": {
        "CustomsAccount": {
            "$schema": "http://json-schema.org/draft-04/schema#",
            "type": "object",
            "properties": {
                "FunctionCode": {
                    "type": "string"
                },
                "ID": {
                    "type": "string",
                    "isRequired": true
                },
                "IssueDateTime": {
                    "type": "string"
                },
                "TypeCode": {
                    "type": "string",
                    "isRequired": true
                },
                "BusinessEntity": {
                    "$ref": "#/definitions/BusinessEntity",
                    "isRequired": true
                }
            },
            "required": [
                "ID",
                "TypeCode",
                "BusinessEntity"
            ],
            "additionalProperties": false
        },
        "Contact": {
            "type": "object",
            "properties": {
                "Name": {
                    "type": "string"
                },
                "FunctionCode": {
                    "type": "string"
                },
                "Communication": {
                    "$ref": "#/definitions/Communication"
                }
            },
            "required": [
                "Name",
                "FunctionCode",
                "Communication"
            ],
            "additionalProperties": false
        },
        "BusinessEntity": {
            "title": "BusinessEntity",
            "type": "array",
            "items": {
                "type": "object",
                "properties": {
                    "Name": {
                        "type": "string"
                    },
                    "ID": {
                        "type": "string"
                    },
                    "RoleCode": {
                        "type": "string"
                    },
                    "Address": {
                        "title": "Address",
                        "type": "object",
                        "properties": {
                            "TypeCode": {
                                "type": "number"
                            },
                            "CityName": {
                                "type": "string"
                            },
                            "CountryCode": {
                                "type": "string"
                            },
                            "Line": {
                                "type": "string"
                            },
                            "PostcodeID": {
                                "type": "number"
                            }
                        },
                        "required": [
                            "TypeCode",
                            "CityName",
                            "CountryCode",
                            "Line",
                            "PostcodeID"
                        ],
                        "additionalProperties": false
                    },
                    "Contact": {
                        "title": "Contact",
                        "type": "array",
                        "items": {
                            "$ref": "#/definitions/Contact"
                        }
                    },
                    "Communication": {
                        "$ref": "#/definitions/Communication"
                    }
                },
                "required": [
                    "Name",
                    "ID",
                    "RoleCode",
                    "Address",
                    "Contact",
                    "Communication"
                ],
                "additionalProperties": false
            }
        },
        "Communication": {
            "title": "Communication",
            "type": "array",
            "items": {
                "type": "object",
                "properties": {
                    "ID": {
                        "type": "string"
                    },
                    "TypeCode": {
                        "type": "string"
                    }
                }
            }
        }
    }
}